Kathleen's Lab Notebook – apul-mirna-mrna-machine-learning-gene_sets
…
# Convert to data frame and reshape for plotting
Host_AFDW_loadings_df <- as.data.frame(Host_AFDW_loadings) %>%
  rownames_to_column(var = "gene") %>%
  pivot_longer(-gene, names_to = "Host_AFDW_PC", values_to = "Loading")

# View top CpGs contributing most to each PC
top_genes_Host_AFDW <- Host_AFDW_loadings_df %>%
  group_by(Host_AFDW_PC) %>%
  arrange(desc(abs(Loading))) %>%
  slice_head(n = 20)  # Select top 10 CpGs per PC

print(top_genes_Host_AFDW)

## # A tibble: 760 × 3
## # Groups:   Host_AFDW_PC [38]
##    gene       Host_AFDW_PC Loading
##    <chr>      <chr>          <dbl>
##  1 FUN_010504 PC1          -0.0587
##  2 FUN_033160 PC1          -0.0581
##  3 FUN_042402 PC1          -0.0578
##  4 FUN_026248 PC1          -0.0575
##  5 FUN_013949 PC1          -0.0573
##  6 FUN_036450 PC1          -0.0571
##  7 FUN_040401 PC1          -0.0570
##  8 FUN_010505 PC1          -0.0570
##  9 FUN_027385 PC1          -0.0569
## 10 FUN_030089 PC1          -0.0568
## # ℹ 750 more rows
…
