Kathleen’s Lab Notebook - Timeseries molecular: A.pul phenotype and gene/miRNA machine learning – Part 4
…
# Convert to data frame and reshape for plotting
loadings_energy_GO_df <- as.data.frame(loadings_energy_GO) %>%
  rownames_to_column(var = "gene") %>%
  pivot_longer(-gene, names_to = "energy_GO_PC", values_to = "Loading")

# View top CpGs contributing most to each PC
top_genes_energy_GO <- loadings_energy_GO_df %>%
  group_by(energy_GO_PC) %>%
  arrange(desc(abs(Loading))) %>%
  slice_head(n = 20)  # Select top 10 CpGs per PC

print(top_genes_energy_GO)

## # A tibble: 800 × 3
## # Groups:   energy_GO_PC [40]
##    gene       energy_GO_PC Loading
##    <chr>      <chr>          <dbl>
##  1 FUN_028200 PC1           -0.115
##  2 FUN_040444 PC1           -0.113
##  3 FUN_017915 PC1           -0.112
##  4 FUN_001396 PC1            0.109
##  5 FUN_026618 PC1            0.108
##  6 FUN_029673 PC1            0.107
##  7 FUN_023596 PC1           -0.107
##  8 FUN_000370 PC1            0.106
##  9 FUN_039293 PC1           -0.106
## 10 FUN_001160 PC1            0.105
## # ℹ 790 more rows
…
