Timeseries molecular: A.pul, multiomic features to predict expression. Machine learning – Part 3 – Kathleen's Lab Notebook
…
MP_summary <- all_MP %>%
  group_by(Feature) %>%
  summarize(
    Mean_R2 = mean(R2, na.rm = TRUE),
    SD_R2 = sd(R2, na.rm = TRUE),
    High_Perf_Count = sum(R2 >= r2_threshold),
    .groups = 'drop'
  ) %>%
  arrange(desc(High_Perf_Count))

# View top consistently high-performing features
print(MP_summary)

## # A tibble: 99 × 4
##    Feature    Mean_R2  SD_R2 High_Perf_Count
##    <chr>        <dbl>  <dbl>           <int>
##  1 FUN_001160   0.840 0.0826              25
##  2 FUN_001396   0.845 0.0945              25
##  3 FUN_008934   0.920 0.0414              25
##  4 FUN_012474   0.808 0.0918              25
##  5 FUN_028200   0.912 0.0419              25
##  6 FUN_039293   0.846 0.0931              25
##  7 FUN_041721   0.880 0.0542              25
##  8 FUN_002433   0.748 0.120               24
##  9 FUN_011908   0.791 0.115               24
## 10 FUN_015434   0.844 0.131               24
## # ℹ 89 more rows
…
MP_summary_highperf <- all_MP_highperf %>%
  group_by(Feature) %>%
  summarize(
    Mean_R2 = mean(R2, na.rm = TRUE),
    SD_R2 = sd(R2, na.rm = TRUE),
    High_Perf_Count = sum(R2 >= r2_threshold),
    .groups = 'drop'
  ) %>%
  arrange(desc(High_Perf_Count))

# View top consistently high-performing features
print(MP_summary_highperf)

## # A tibble: 43 × 4
##    Feature    Mean_R2  SD_R2 High_Perf_Count
##    <chr>        <dbl>  <dbl>           <int>
##  1 FUN_008934   0.897 0.0752              10
##  2 FUN_015434   0.826 0.0954              10
##  3 FUN_028200   0.910 0.0418              10
##  4 FUN_037573   0.844 0.0811              10
##  5 FUN_041721   0.849 0.0700              10
##  6 FUN_001160   0.750 0.186                9
##  7 FUN_001396   0.762 0.171                9
##  8 FUN_002433   0.674 0.132                9
##  9 FUN_007022   0.722 0.163                9
## 10 FUN_032220   0.721 0.240                9
## # ℹ 33 more rows
…
